<?xml version="1.0" encoding="utf-8"?>
<!-- Generator: Adobe Illustrator 18.1.1, SVG Export Plug-In . SVG Version: 6.00 Build 0)  -->
<svg version="1.1" id="Layer_1" xmlns="http://www.w3.org/2000/svg" xmlns:xlink="http://www.w3.org/1999/xlink" x="0px" y="0px"
	 viewBox="0 0 270.3 41.7" enable-background="new 0 0 270.3 41.7" xml:space="preserve">
<g>
	<path fill="#FFFFFF" d="M3.6,5.1c0-0.3,0.1-0.6,0.4-0.8C4.1,4.2,4.4,4,4.8,4h8.7c0.6,0,1,0.3,1.2,1l6.8,22.7L28.3,5
		c0.2-0.6,0.7-1,1.3-1h8.5c0.3,0,0.6,0.1,0.8,0.3c0.2,0.2,0.4,0.5,0.4,0.8c0.6,5.9,1.2,11.7,1.8,17.5c0.6,5.8,1.2,11.6,1.8,17.5v0.1
		c0,0.6-0.4,1-1.1,1h-7.1c-0.8,0-1.2-0.4-1.2-1.1l-2.2-19.3l-5.6,19.4c0,0.2-0.2,0.4-0.4,0.6c-0.2,0.2-0.4,0.4-0.6,0.4h-6.6
		c-0.2,0-0.4-0.1-0.6-0.3c-0.2-0.2-0.3-0.4-0.4-0.6l-5.6-19.4L9.4,40.1c0,0.7-0.4,1.1-1.2,1.1H1.1c-0.7,0-1.1-0.4-1.1-1.1L3.6,5.1z"
		/>
	<path fill="#FFFFFF" d="M46,25.3c0-1.5,0.2-3,0.6-4.4s0.9-2.7,1.7-3.9c0.7-1.2,1.6-2.3,2.5-3.3c1-1,2.1-1.8,3.3-2.5
		c1.2-0.7,2.5-1.2,3.9-1.6c1.4-0.4,2.9-0.6,4.4-0.6c2.3,0,4.4,0.4,6.4,1.3s3.7,2,5.2,3.5c1.5,1.5,2.6,3.2,3.5,5.2
		c0.9,2,1.3,4.1,1.3,6.5c0,1.5-0.2,3-0.6,4.4c-0.4,1.4-0.9,2.7-1.7,3.9C75.8,34.9,75,36,74,37c-1,1-2.1,1.8-3.3,2.5
		c-1.2,0.7-2.5,1.3-3.9,1.6s-2.8,0.6-4.4,0.6c-1.5,0-3-0.2-4.4-0.6c-1.4-0.4-2.7-0.9-3.9-1.6c-1.2-0.7-2.3-1.6-3.3-2.5
		c-1-1-1.8-2.1-2.5-3.3c-0.7-1.2-1.3-2.5-1.7-3.9C46.1,28.3,46,26.9,46,25.3z M55.1,25.3c0,1.1,0.2,2.1,0.5,3.1
		c0.3,1,0.8,1.8,1.4,2.5c0.6,0.7,1.4,1.3,2.3,1.7c0.9,0.4,1.9,0.6,3,0.6c1.1,0,2.1-0.2,2.9-0.6s1.6-1,2.2-1.7
		c0.6-0.7,1.1-1.5,1.4-2.5c0.3-1,0.5-2,0.5-3.1c0-1.1-0.2-2.1-0.5-3c-0.3-1-0.8-1.8-1.4-2.6c-0.6-0.7-1.4-1.3-2.2-1.7
		s-1.9-0.6-2.9-0.6c-1.1,0-2.1,0.2-3,0.6c-0.9,0.4-1.7,1-2.3,1.7c-0.6,0.7-1.1,1.6-1.4,2.6C55.2,23.2,55.1,24.3,55.1,25.3z"/>
	<path fill="#FFFFFF" d="M84.4,9.9c0.2-0.2,0.4-0.3,0.7-0.4c0.2,0,0.5-0.1,0.7-0.1h3.8c0.3,0,0.6,0.1,0.8,0.2
		c0.2,0.1,0.4,0.3,0.5,0.4c0.1,0.2,0.3,0.4,0.4,0.6c0.1,0.2,0.2,0.5,0.3,0.7l0.8,3.2c0.3-0.5,0.6-1.1,1.1-1.8
		c0.5-0.7,1.1-1.3,1.8-1.8s1.6-1.1,2.6-1.4c1-0.4,2.2-0.6,3.5-0.6c1.9,0,3.6,0.4,5.2,1.1c1.6,0.7,2.9,1.7,4,3s1.9,2.7,2.5,4.4
		c0.6,1.7,0.9,3.5,0.9,5.4v16.4c0,0.6-0.1,1.1-0.4,1.4c-0.3,0.3-0.7,0.5-1.3,0.5h-5.8c-0.7,0-1.2-0.1-1.5-0.4
		c-0.3-0.2-0.4-0.7-0.4-1.4V23.1c0-0.7-0.2-1.4-0.5-2s-0.8-1.2-1.3-1.7c-0.5-0.5-1.1-0.9-1.8-1.2c-0.7-0.3-1.4-0.4-2.1-0.4
		c-0.6,0-1.2,0.1-1.8,0.4c-0.6,0.3-1.2,0.6-1.7,1.1c-0.5,0.5-1,1-1.3,1.7c-0.4,0.6-0.6,1.3-0.6,2.1v16.3c0,0.3-0.1,0.6-0.2,0.9
		c-0.1,0.3-0.3,0.5-0.5,0.6c-0.2,0.1-0.4,0.2-0.6,0.3c-0.2,0.1-0.4,0.1-0.7,0.1h-5.6c-0.7,0-1.2-0.2-1.5-0.5
		c-0.3-0.4-0.5-0.8-0.5-1.4v-28c0-0.3,0.1-0.6,0.2-0.9s0.3-0.5,0.6-0.6L84.4,9.9z"/>
	<path fill="#FFFFFF" d="M118.4,25.3c0-1.5,0.2-3,0.6-4.4s0.9-2.7,1.7-3.9c0.7-1.2,1.6-2.3,2.5-3.3c1-1,2.1-1.8,3.3-2.5
		c1.2-0.7,2.5-1.2,3.9-1.6s2.9-0.6,4.4-0.6c2.3,0,4.4,0.4,6.4,1.3s3.7,2,5.2,3.5c1.5,1.5,2.6,3.2,3.5,5.2c0.9,2,1.3,4.1,1.3,6.5
		c0,1.5-0.2,3-0.6,4.4c-0.4,1.4-0.9,2.7-1.7,3.9c-0.7,1.2-1.6,2.3-2.5,3.3c-1,1-2.1,1.8-3.3,2.5c-1.2,0.7-2.5,1.3-3.9,1.6
		c-1.4,0.4-2.8,0.6-4.4,0.6c-1.5,0-3-0.2-4.4-0.6s-2.7-0.9-3.9-1.6c-1.2-0.7-2.3-1.6-3.3-2.5c-1-1-1.8-2.1-2.5-3.3
		c-0.7-1.2-1.3-2.5-1.7-3.9C118.6,28.3,118.4,26.9,118.4,25.3z M127.5,25.3c0,1.1,0.2,2.1,0.5,3.1c0.3,1,0.8,1.8,1.5,2.5
		c0.6,0.7,1.4,1.3,2.3,1.7s1.9,0.6,3,0.6c1.1,0,2.1-0.2,2.9-0.6s1.6-1,2.2-1.7c0.6-0.7,1.1-1.5,1.4-2.5c0.3-1,0.5-2,0.5-3.1
		c0-1.1-0.2-2.1-0.5-3c-0.3-1-0.8-1.8-1.4-2.6c-0.6-0.7-1.3-1.3-2.2-1.7s-1.9-0.6-2.9-0.6c-1.1,0-2.1,0.2-3,0.6s-1.7,1-2.3,1.7
		c-0.6,0.7-1.1,1.6-1.5,2.6C127.7,23.2,127.5,24.3,127.5,25.3z"/>
	<path fill="#FFFFFF" d="M156.2,1.9c0-0.5,0.1-1,0.4-1.4c0.3-0.4,0.7-0.5,1.4-0.5h6.1c0.2,0,0.3,0,0.5,0.1c0.2,0.1,0.4,0.2,0.5,0.4
		s0.3,0.4,0.4,0.6c0.1,0.2,0.2,0.5,0.2,0.8v37.4c0,0.6-0.2,1.1-0.5,1.4c-0.4,0.3-0.8,0.5-1.4,0.5H158c-0.7,0-1.1-0.2-1.4-0.5
		c-0.3-0.3-0.4-0.8-0.4-1.4V1.9z"/>
	<path fill="#FFFFFF" d="M204.4,39.3c0,0.3,0,0.6-0.1,0.8c-0.1,0.3-0.3,0.5-0.5,0.6c-0.2,0.2-0.4,0.3-0.7,0.3
		c-0.3,0.1-0.5,0.1-0.7,0.1h-4.9c-0.3,0-0.6,0-0.8-0.1c-0.2-0.1-0.4-0.2-0.5-0.4s-0.2-0.4-0.3-0.6c-0.1-0.2-0.2-0.5-0.3-0.8
		l-0.7-1.9c-0.5,0.4-0.9,0.9-1.5,1.4s-1.1,1-1.8,1.4c-0.6,0.4-1.3,0.8-2.1,1.1c-0.8,0.3-1.5,0.4-2.4,0.4c-1.5,0-3-0.2-4.4-0.6
		s-2.7-0.9-3.9-1.6c-1.2-0.7-2.3-1.6-3.3-2.5c-1-1-1.8-2.1-2.5-3.3c-0.7-1.2-1.3-2.5-1.6-3.9c-0.4-1.4-0.6-2.9-0.6-4.4
		c0-2.3,0.4-4.5,1.3-6.5c0.8-2,2-3.7,3.5-5.2c1.5-1.5,3.2-2.6,5.2-3.5s4.1-1.3,6.4-1.3c1,0,2,0.2,2.9,0.5c0.9,0.3,1.7,0.7,2.4,1.2
		c0.7,0.5,1.3,1.1,1.9,1.7c0.6,0.6,1.1,1.3,1.5,1.9l1-3c0.2-0.4,0.3-0.8,0.4-1s0.2-0.5,0.4-0.6s0.3-0.2,0.5-0.3
		c0.2,0,0.4-0.1,0.8-0.1h3.7c0.2,0,0.4,0,0.7,0.1c0.3,0,0.5,0.2,0.7,0.3c0.2,0.2,0.4,0.4,0.5,0.6c0.1,0.2,0.1,0.5,0.1,0.8V39.3z
		 M179.7,25.3c0,1.1,0.2,2.1,0.5,3.1c0.3,1,0.8,1.8,1.5,2.5c0.6,0.7,1.4,1.3,2.3,1.7s1.9,0.6,3,0.6c1.1,0,2.2-0.2,3.1-0.6
		c1-0.4,1.8-1,2.5-1.7c0.7-0.7,1.3-1.5,1.7-2.5c0.4-1,0.6-2,0.6-3.1c0-1.1-0.2-2.1-0.6-3c-0.4-1-1-1.8-1.7-2.6
		c-0.7-0.7-1.5-1.3-2.5-1.7c-1-0.4-2-0.6-3.1-0.6c-1.1,0-2.1,0.2-3,0.6s-1.7,1-2.3,1.7c-0.6,0.7-1.1,1.6-1.5,2.6
		C179.9,23.2,179.7,24.3,179.7,25.3z"/>
	<path fill="#FFFFFF" d="M230.7,31.4c0.2-0.2,0.5-0.3,0.7-0.3s0.4-0.1,0.5-0.1c0.3,0,0.5,0.1,0.8,0.2c0.2,0.1,0.5,0.4,0.7,0.8
		l2.8,4.2c0.1,0.1,0.2,0.3,0.2,0.5s0.1,0.3,0.1,0.4c0,0.4-0.1,0.7-0.4,0.9c-0.2,0.2-0.5,0.5-0.8,0.6c-1.4,1-2.9,1.7-4.5,2.3
		c-1.6,0.6-3.3,0.9-5.2,0.9c-1.5,0-2.9-0.2-4.3-0.6s-2.7-0.9-3.9-1.6c-1.2-0.7-2.3-1.6-3.3-2.5c-1-1-1.8-2.1-2.5-3.3
		c-0.7-1.2-1.2-2.5-1.6-3.9c-0.4-1.4-0.6-2.9-0.6-4.4c0-1.5,0.2-3,0.6-4.4s0.9-2.7,1.6-3.9s1.5-2.3,2.5-3.3c1-1,2.1-1.8,3.3-2.5
		c1.2-0.7,2.5-1.2,3.9-1.6s2.8-0.6,4.3-0.6c1.8,0,3.5,0.2,5,0.7s3,1.2,4.3,2.1l-0.1-0.1c0.4,0.2,0.7,0.5,0.9,0.8
		c0.2,0.3,0.3,0.7,0.3,1.1c0,0.3-0.1,0.6-0.3,0.9l-2.2,3.8c-0.5,0.8-1,1.2-1.7,1.2c-0.1,0-0.3,0-0.5-0.1c-0.2-0.1-0.5-0.2-0.7-0.4
		c-0.7-0.5-1.5-0.9-2.4-1.2c-0.8-0.3-1.7-0.5-2.7-0.5c-1.1,0-2,0.2-2.9,0.6c-0.9,0.4-1.6,1-2.3,1.7c-0.6,0.7-1.1,1.6-1.5,2.6
		c-0.4,1-0.5,2-0.5,3c0,1.1,0.2,2.1,0.5,3.1c0.3,1,0.8,1.8,1.5,2.5c0.6,0.7,1.4,1.3,2.3,1.7c0.9,0.4,1.8,0.6,2.9,0.6
		c0.9,0,1.8-0.2,2.7-0.5C229.2,32.3,229.9,31.9,230.7,31.4z"/>
	<path fill="#FFFFFF" d="M266.8,37.4c-1.5,1.3-3.1,2.4-4.9,3.2c-1.8,0.8-3.8,1.1-5.8,1.1c-2.3,0-4.4-0.4-6.5-1.3s-3.8-2-5.3-3.5
		s-2.8-3.2-3.7-5.2c-0.9-2-1.3-4.2-1.3-6.5c0-1.5,0.2-2.9,0.5-4.3s0.9-2.7,1.5-3.9c0.7-1.2,1.5-2.3,2.4-3.3c0.9-1,2-1.9,3.2-2.6
		c1.2-0.7,2.4-1.3,3.8-1.7s2.8-0.6,4.3-0.6c1.4,0,2.7,0.2,4,0.5c1.3,0.4,2.5,0.9,3.7,1.6s2.2,1.5,3.1,2.4c1,0.9,1.8,2,2.5,3.1
		c0.7,1.1,1.2,2.3,1.6,3.5c0.4,1.3,0.6,2.6,0.6,3.9c0,0.9,0,1.6,0,2.1c0,0.5-0.2,1-0.4,1.3s-0.6,0.5-1.2,0.7
		c-0.5,0.1-1.3,0.2-2.4,0.2h-18c0.2,1.1,0.5,2,1,2.7c0.5,0.7,1.1,1.3,1.8,1.7c0.7,0.4,1.4,0.7,2.1,0.9c0.8,0.2,1.5,0.3,2.1,0.3
		c0.6,0,1.2-0.1,1.9-0.2c0.6-0.1,1.2-0.3,1.8-0.5c0.6-0.2,1.1-0.5,1.6-0.7c0.5-0.3,0.9-0.6,1.2-0.9c0.3-0.2,0.5-0.4,0.7-0.5
		c0.2-0.1,0.4-0.2,0.6-0.2c0.2,0,0.4,0.1,0.7,0.2c0.2,0.2,0.5,0.4,0.8,0.7l2.6,3c0.2,0.2,0.3,0.4,0.4,0.6c0,0.2,0.1,0.4,0.1,0.5
		c0,0.3-0.1,0.6-0.3,0.9C267.3,37,267,37.2,266.8,37.4z M254.8,16.5c-0.7,0-1.3,0.1-1.9,0.4s-1.2,0.6-1.7,1c-0.5,0.4-1,0.9-1.4,1.5
		c-0.4,0.6-0.8,1.1-1,1.7h12.8c-0.4-0.7-0.7-1.3-1.1-1.8c-0.4-0.5-0.9-1-1.4-1.4c-0.5-0.4-1.1-0.7-1.8-1S255.7,16.5,254.8,16.5z"/>
</g>
</svg>
