<?xml version="1.0" encoding="utf-8"?>
<!-- Generator: Adobe Illustrator 18.1.1, SVG Export Plug-In . SVG Version: 6.00 Build 0)  -->
<svg version="1.1" id="Layer_1" xmlns="http://www.w3.org/2000/svg" xmlns:xlink="http://www.w3.org/1999/xlink" x="0px" y="0px"
	 viewBox="0 0 259.7 175.7" enable-background="new 0 0 259.7 175.7" xml:space="preserve">
<rect x="570.9" y="43.1" width="113" height="26.1"/>
<polygon points="622.9,136.6 622.9,293.1 614.3,293.1 570.9,132.3 586.1,80.1 668.7,80.1 683.9,132.3 640.4,293.1 631.9,293.1 
	631.9,136.6 "/>
<circle fill="#FFFFFF" cx="627.4" cy="136.6" r="21.2"/>
<rect x="-353.1" y="-45.4" fill="#414042" width="113" height="26.1"/>
<path fill="#414042" d="M-255.3-8.5h-82.6l-15.2,52.2l43.5,160.9h8.5V68.8c-9.5-2.1-16.7-10.6-16.7-20.7c0-11.7,9.5-21.2,21.2-21.2
	s21.2,9.5,21.2,21.2c0,10.2-7.2,18.7-16.7,20.7v135.8h8.5l43.5-160.9L-255.3-8.5z"/>
<polyline fill="none" stroke="#000000" stroke-width="26" stroke-miterlimit="10" points="222.7,729.2 282.7,621.2 222.7,513.2 "/>
<polyline fill="none" stroke="#000000" stroke-width="26" stroke-miterlimit="10" points="76.7,513.2 16.7,621.2 76.7,729.2 "/>
<line fill="none" stroke="#000000" stroke-width="26" stroke-miterlimit="10" x1="176.2" y1="513.2" x2="120.7" y2="729.2"/>
<g>
	<polygon fill="none" points="961.8,70 941.3,70 896.2,245.7 963.5,245.7 1011.5,159.3 	"/>
	<polygon fill="none" points="853.6,70 804,159.3 851.9,245.7 872.6,245.7 917.7,70 	"/>
	<polygon points="988,70 961.8,70 1011.5,159.3 963.5,245.7 989.6,245.7 1037.6,159.3 	"/>
	<polygon points="853.6,70 827.4,70 777.8,159.3 825.8,245.7 851.9,245.7 804,159.3 	"/>
	<polygon points="917.7,70 872.6,245.7 896.2,245.7 941.3,70 	"/>
</g>
<g>
	<polygon fill="#414042" points="210.1,0 184,0 233.6,89.3 185.7,175.7 211.8,175.7 259.7,89.3 	"/>
	<polygon fill="#414042" points="75.7,0 49.6,0 0,89.3 48,175.7 74.1,175.7 26.1,89.3 	"/>
	<polygon fill="#414042" points="139.9,0 94.8,175.7 118.4,175.7 163.5,0 	"/>
</g>
<polygon fill="none" stroke="#000000" stroke-width="20" stroke-miterlimit="10" points="786.6,536.6 925.2,536.6 943.4,573 
	961.6,536.6 1000.2,536.6 1000.2,426.1 786.6,426.1 "/>
<g>
	<path fill="#414042" d="M-90,535.6l-24.4-48.7h-142.4V356.4h233.6v130.5h-42.4L-90,535.6z M-236.8,466.9H-102l12,24l12-24h34.8
		v-90.5h-193.6V466.9z"/>
</g>
</svg>
