<?xml version="1.0" encoding="utf-8"?>
<!-- Generator: Adobe Illustrator 18.1.1, SVG Export Plug-In . SVG Version: 6.00 Build 0)  -->
<svg version="1.1" id="Layer_1" xmlns="http://www.w3.org/2000/svg" xmlns:xlink="http://www.w3.org/1999/xlink" x="0px" y="0px"
	 viewBox="0 0 233.6 179.2" enable-background="new 0 0 233.6 179.2" xml:space="preserve">
<rect x="827.6" y="-313.2" width="113" height="26.1"/>
<polygon points="879.6,-219.8 879.6,-63.2 871.1,-63.2 827.6,-224.1 842.9,-276.3 925.5,-276.3 940.7,-224.1 897.2,-63.2 
	888.7,-63.2 888.7,-219.8 "/>
<circle fill="#FFFFFF" cx="884.2" cy="-219.8" r="21.2"/>
<rect x="-96.4" y="-401.8" fill="#414042" width="113" height="26.1"/>
<path fill="#414042" d="M1.5-364.9h-82.6l-15.2,52.2l43.5,160.9h8.5v-135.8c-9.5-2.1-16.7-10.6-16.7-20.7c0-11.7,9.5-21.2,21.2-21.2
	s21.2,9.5,21.2,21.2c0,10.2-7.2,18.7-16.7,20.7v135.8h8.5l43.5-160.9L1.5-364.9z"/>
<polyline fill="none" stroke="#000000" stroke-width="26" stroke-miterlimit="10" points="479.5,372.9 539.5,264.9 479.5,156.9 "/>
<polyline fill="none" stroke="#000000" stroke-width="26" stroke-miterlimit="10" points="333.5,156.9 273.5,264.9 333.5,372.9 "/>
<line fill="none" stroke="#000000" stroke-width="26" stroke-miterlimit="10" x1="433" y1="156.9" x2="377.5" y2="372.9"/>
<g>
	<polygon fill="none" points="1218.6,-286.4 1198.1,-286.4 1153,-110.7 1220.3,-110.7 1268.2,-197.1 	"/>
	<polygon fill="none" points="1110.4,-286.4 1060.7,-197.1 1108.7,-110.7 1129.4,-110.7 1174.5,-286.4 	"/>
	<polygon points="1244.7,-286.4 1218.6,-286.4 1268.2,-197.1 1220.3,-110.7 1246.4,-110.7 1294.4,-197.1 	"/>
	<polygon points="1110.4,-286.4 1084.2,-286.4 1034.6,-197.1 1082.6,-110.7 1108.7,-110.7 1060.7,-197.1 	"/>
	<polygon points="1174.5,-286.4 1129.4,-110.7 1153,-110.7 1198.1,-286.4 	"/>
</g>
<g>
	<polygon fill="#414042" points="466.9,-356.4 440.8,-356.4 490.4,-267.1 442.4,-180.7 468.6,-180.7 516.5,-267.1 	"/>
	<polygon fill="#414042" points="332.5,-356.4 306.4,-356.4 256.8,-267.1 304.8,-180.7 330.9,-180.7 282.9,-267.1 	"/>
	<polygon fill="#414042" points="396.7,-356.4 351.6,-180.7 375.2,-180.7 420.3,-356.4 	"/>
</g>
<polygon fill="none" stroke="#000000" stroke-width="20" stroke-miterlimit="10" points="1043.4,180.2 1182,180.2 1200.2,216.6 
	1218.4,180.2 1256.9,180.2 1256.9,69.8 1043.4,69.8 "/>
<g>
	<path fill="#414042" d="M166.8,179.2l-24.4-48.7H0V0h233.6v130.5h-42.4L166.8,179.2z M20,110.5h134.8l12,24l12-24h34.8V20H20V110.5
		z"/>
</g>
</svg>
