<?xml version="1.0" encoding="utf-8"?>
<!-- Generator: Adobe Illustrator 18.1.1, SVG Export Plug-In . SVG Version: 6.00 Build 0)  -->
<svg version="1.1" id="Layer_1" xmlns="http://www.w3.org/2000/svg" xmlns:xlink="http://www.w3.org/1999/xlink" x="0px" y="0px"
	 viewBox="0 0 113 250" enable-background="new 0 0 113 250" xml:space="preserve">
<rect x="924" y="88.6" width="113" height="26.1"/>
<polygon points="976,182 976,338.6 967.5,338.6 924,177.7 939.2,125.5 1021.8,125.5 1037,177.7 993.6,338.6 985,338.6 985,182 "/>
<circle fill="#FFFFFF" cx="980.5" cy="182" r="21.2"/>
<rect x="0" y="0" fill="#414042" width="113" height="26.1"/>
<path fill="#414042" d="M97.8,37H15.2L0,89.1L43.5,250H52V114.2c-9.5-2.1-16.7-10.6-16.7-20.7c0-11.7,9.5-21.2,21.2-21.2
	s21.2,9.5,21.2,21.2c0,10.2-7.2,18.7-16.7,20.7V250h8.5L113,89.1L97.8,37z"/>
<polyline fill="none" stroke="#000000" stroke-width="26" stroke-miterlimit="10" points="575.9,774.7 635.9,666.7 575.9,558.7 "/>
<polyline fill="none" stroke="#000000" stroke-width="26" stroke-miterlimit="10" points="429.9,558.7 369.9,666.7 429.9,774.7 "/>
<line fill="none" stroke="#000000" stroke-width="26" stroke-miterlimit="10" x1="529.4" y1="558.7" x2="473.9" y2="774.7"/>
<g>
	<polygon fill="none" points="1315,115.4 1294.5,115.4 1249.3,291.1 1316.6,291.1 1364.6,204.7 	"/>
	<polygon fill="none" points="1206.7,115.4 1157.1,204.7 1205.1,291.1 1225.8,291.1 1270.9,115.4 	"/>
	<polygon points="1341.1,115.4 1315,115.4 1364.6,204.7 1316.6,291.1 1342.7,291.1 1390.7,204.7 	"/>
	<polygon points="1206.7,115.4 1180.6,115.4 1131,204.7 1178.9,291.1 1205.1,291.1 1157.1,204.7 	"/>
	<polygon points="1270.9,115.4 1225.8,291.1 1249.3,291.1 1294.5,115.4 	"/>
</g>
<g>
	<polygon fill="#414042" points="563.3,45.4 537.1,45.4 586.8,134.7 538.8,221.1 564.9,221.1 612.9,134.7 	"/>
	<polygon fill="#414042" points="428.9,45.4 402.8,45.4 353.1,134.7 401.1,221.1 427.2,221.1 379.3,134.7 	"/>
	<polygon fill="#414042" points="493.1,45.4 447.9,221.1 471.5,221.1 516.6,45.4 	"/>
</g>
<polygon fill="none" stroke="#000000" stroke-width="20" stroke-miterlimit="10" points="1139.7,582.1 1278.3,582.1 1296.5,618.4 
	1314.7,582.1 1353.3,582.1 1353.3,471.6 1139.7,471.6 "/>
<g>
	<path fill="#414042" d="M263.2,581l-24.4-48.7H96.4V401.8h233.6v130.5h-42.4L263.2,581z M116.4,512.3h134.8l12,24l12-24h34.8v-90.5
		H116.4V512.3z"/>
</g>
</svg>
